[gd_scene load_steps=3 format=2]

[ext_resource path="res://UI/display/part_controler_base.tscn" type="PackedScene" id=1]
[ext_resource path="res://images/eyes/duck/duck_lash.png" type="Texture" id=2]

[node name="BirdTexture" instance=ExtResource( 1 )]
anchor_right = 0.0
anchor_bottom = 0.0
margin_left = -162.0
margin_top = -221.0
margin_right = 150.0
margin_bottom = 91.0
texture = ExtResource( 2 )
